{
  "development": {
    "username": "root",
    "password": null,
    "database": "case_study",
    "host": "127.0.0.1",
    "dialect": "mysql"
  },
  "test": {
    "username": "sql12263493",
    "password": "re6TbZK2ps",
    "database": "sql12263493",
    "host": "sql12.freemysqlhosting.net",
    "port": 3306,
    "dialect": "mysql"
  },
  "production": {
    "username": "sql12261714",
    "password": "VhL9FbqIhF",
    "database": "sql12261714",
    "host": "sql12.freemysqlhosting.net",
    "port": 3306,
    "dialect": "mysql"
  }
}
